xof 0303txt 0032
template XSkinMeshHeader {
 <3cf169ce-ff7c-44ab-93c0-f78f62d172e2>
 WORD nMaxSkinWeightsPerVertex;
 WORD nMaxSkinWeightsPerFace;
 WORD nBones;
}

template VertexDuplicationIndices {
 <b8d65549-d7c9-4995-89cf-53a9a8b031e3>
 DWORD nIndices;
 DWORD nOriginalVertices;
 array DWORD indices[nIndices];
}

template SkinWeights {
 <6f0d123b-bad2-4167-a0d0-80224f25fabb>
 STRING transformNodeName;
 DWORD nWeights;
 array DWORD vertexIndices[nWeights];
 array FLOAT weights[nWeights];
 Matrix4x4 matrixOffset;
}

template AnimTicksPerSecond {
 <9e415a43-7ba6-4a73-8743-b73d47e88476>
 DWORD AnimTicksPerSecond;
}


AnimTicksPerSecond {
 24;
}

Mesh {
 18;
 1.258567;84.512695;-10.308154;,
 31.434669;84.512680;-55.465294;,
 25.649734;0.612281;-61.530319;,
 6.513639;0.612304;0.322426;,
 -34.172230;84.512711;37.367210;,
 -40.684380;0.612329;32.614113;,
 0.541664;84.512695;-8.000004;,
 -3.958336;84.512688;-62.125000;,
 4.041664;0.612299;-64.625000;,
 -9.208336;0.612305;-1.250000;,
 8.416664;84.512711;50.875000;,
 16.416664;0.612310;49.875000;,
 14.532663;84.512695;-7.408816;,
 68.781723;84.512680;-4.800494;,
 71.001007;0.612279;-12.882873;,
 8.127037;0.612304;2.570811;,
 -44.581310;84.512711;-13.224309;,
 -43.861118;0.612332;-21.254339;;
 24;
 3;0,2,1;,
 3;0,2,3;,
 3;0,3,4;,
 3;4,3,5;,
 3;2,0,1;,
 3;2,0,3;,
 3;3,0,4;,
 3;3,4,5;,
 3;6,8,7;,
 3;6,8,9;,
 3;6,9,10;,
 3;10,9,11;,
 3;8,6,7;,
 3;8,6,9;,
 3;9,6,10;,
 3;9,10,11;,
 3;12,14,13;,
 3;12,14,15;,
 3;12,15,16;,
 3;16,15,17;,
 3;14,12,13;,
 3;14,12,15;,
 3;15,12,16;,
 3;15,16,17;;

 MeshNormals {
  18;
  0.000000;-0.850651;0.525731;,
  0.000000;-0.850651;0.525731;,
  0.000000;-0.850651;0.525731;,
  0.000000;-0.850651;0.525731;,
  0.000000;-0.850651;0.525731;,
  0.000000;-0.850651;0.525731;,
  0.000000;-0.850651;0.525731;,
  0.000000;-0.850651;0.525731;,
  0.000000;-0.850651;0.525731;,
  0.000000;-0.850651;0.525731;,
  0.000000;-0.850651;0.525731;,
  0.000000;-0.850651;0.525731;,
  0.000000;-0.850651;0.525731;,
  0.000000;-0.850651;0.525731;,
  0.000000;-0.850651;0.525731;,
  0.000000;-0.850651;0.525731;,
  0.000000;-0.850651;0.525731;,
  0.000000;-0.850651;0.525731;;
  24;
  3;0,2,1;,
  3;0,2,3;,
  3;0,3,4;,
  3;4,3,5;,
  3;2,0,1;,
  3;2,0,3;,
  3;3,0,4;,
  3;3,4,5;,
  3;6,8,7;,
  3;6,8,9;,
  3;6,9,10;,
  3;10,9,11;,
  3;8,6,7;,
  3;8,6,9;,
  3;9,6,10;,
  3;9,10,11;,
  3;12,14,13;,
  3;12,14,15;,
  3;12,15,16;,
  3;16,15,17;,
  3;14,12,13;,
  3;14,12,15;,
  3;15,12,16;,
  3;15,16,17;;
 }

 MeshTextureCoords {
  18;
  0.501590;0.003562;,
  0.000636;0.003562;,
  0.000636;0.992532;,
  0.501590;0.992532;,
  0.993756;0.003562;,
  0.993756;0.992532;,
  0.501590;0.003562;,
  0.000636;0.003562;,
  0.000636;0.992532;,
  0.501590;0.992532;,
  0.993756;0.003562;,
  0.993756;0.992532;,
  0.501590;0.003562;,
  0.000636;0.003562;,
  0.000636;0.992532;,
  0.501590;0.992532;,
  0.993756;0.003562;,
  0.993756;0.992532;;
 }

 VertexDuplicationIndices {
  18;
  18;
  0,
  1,
  2,
  3,
  4,
  5,
  6,
  7,
  8,
  9,
  10,
  11,
  12,
  13,
  14,
  15,
  16,
  17;
 }

 MeshMaterialList {
  1;
  24;
  0,
  0,
  0,
  0,
  0,
  0,
  0,
  0,
  0,
  0,
  0,
  0,
  0,
  0,
  0,
  0,
  0,
  0,
  0,
  0,
  0,
  0,
  0,
  0;

  Material IMG_1401_tga {
   0.752941;0.752941;0.752941;1.000000;;
   40.000000;
   0.000000;0.000000;0.000000;;
   0.000000;0.000000;0.000000;;

   TextureFilename {
    "s1.tga";
   }
  }
 }
}