xof 0303txt 0032
template XSkinMeshHeader {
 <3cf169ce-ff7c-44ab-93c0-f78f62d172e2>
 WORD nMaxSkinWeightsPerVertex;
 WORD nMaxSkinWeightsPerFace;
 WORD nBones;
}

template VertexDuplicationIndices {
 <b8d65549-d7c9-4995-89cf-53a9a8b031e3>
 DWORD nIndices;
 DWORD nOriginalVertices;
 array DWORD indices[nIndices];
}

template SkinWeights {
 <6f0d123b-bad2-4167-a0d0-80224f25fabb>
 STRING transformNodeName;
 DWORD nWeights;
 array DWORD vertexIndices[nWeights];
 array FLOAT weights[nWeights];
 Matrix4x4 matrixOffset;
}

template AnimTicksPerSecond {
 <9e415a43-7ba6-4a73-8743-b73d47e88476>
 DWORD AnimTicksPerSecond;
}


AnimTicksPerSecond {
 24;
}

Mesh {
 16;
 3.579820;0.187340;-15.525409;,
 -3.845175;0.187344;15.640168;,
 5.579845;33.478920;-15.525385;,
 -3.626963;33.478920;15.690525;,
 18.020514;0.134663;-0.205704;,
 -18.020941;0.134663;0.069967;,
 18.020515;44.281597;0.069980;,
 -18.020943;44.281597;-1.930035;,
 3.579820;0.187340;-15.525409;,
 -3.845175;0.187344;15.640168;,
 5.579845;33.478920;-15.525385;,
 -3.626963;33.478920;15.690525;,
 18.020514;0.134663;-0.205704;,
 -18.020941;0.134663;0.069967;,
 18.020515;44.281597;0.069980;,
 -18.020943;44.281597;-1.930035;;
 8;
 3;8,10,9;,
 3;11,9,10;,
 3;12,14,13;,
 3;15,13,14;,
 3;1,3,0;,
 3;2,0,3;,
 3;5,7,4;,
 3;6,4,7;;

 MeshNormals {
  16;
  0.000000;-0.850651;0.525731;,
  0.000000;-0.850651;0.525731;,
  0.000000;-0.850651;0.525731;,
  0.000000;-0.850651;0.525731;,
  0.000000;-0.850651;0.525731;,
  0.000000;-0.850651;0.525731;,
  0.000000;-0.850651;0.525731;,
  0.000000;-0.850651;0.525731;,
  0.000000;-0.850651;0.525731;,
  0.000000;-0.850651;0.525731;,
  0.000000;-0.850651;0.525731;,
  0.000000;-0.850651;0.525731;,
  0.000000;-0.850651;0.525731;,
  0.000000;-0.850651;0.525731;,
  0.000000;-0.850651;0.525731;,
  0.000000;-0.850651;0.525731;;
  8;
  3;8,10,9;,
  3;11,9,10;,
  3;12,14,13;,
  3;15,13,14;,
  3;1,3,0;,
  3;2,0,3;,
  3;5,7,4;,
  3;6,4,7;;
 }

 MeshTextureCoords {
  16;
  0.001158;0.998075;,
  0.998633;0.998013;,
  0.001194;0.004463;,
  0.998488;0.004463;,
  0.001158;0.998075;,
  0.998633;0.998013;,
  0.001194;0.004463;,
  0.998488;0.004463;,
  0.998633;0.998013;,
  0.001158;0.998075;,
  0.998488;0.004463;,
  0.001194;0.004463;,
  0.998633;0.998013;,
  0.001158;0.998075;,
  0.998488;0.004463;,
  0.001194;0.004463;;
 }

 VertexDuplicationIndices {
  16;
  8;
  0,
  1,
  2,
  3,
  4,
  5,
  6,
  7,
  0,
  1,
  2,
  3,
  4,
  5,
  6,
  7;
 }

 MeshMaterialList {
  1;
  8;
  0,
  0,
  0,
  0,
  0,
  0,
  0,
  0;

  Material SKIN_19 {
   0.752941;0.752941;0.752941;1.000000;;
   40.000000;
   0.000000;0.000000;0.000000;;
   0.000000;0.000000;0.000000;;

   TextureFilename {
    "weed1.tga";
   }
  }
 }
}